﻿
[
  {
	  "annualSalary": 300000,
	  "invBuildLSAVC": 0,
	  "memAnnNormalInvBuildConts": 19209,
	  "empAnnNormalInvBuildConts": 28814,
	  "memAnnAddInvBuildConts": 0,
	  "memAnnSchemeConts": 29400,
	  "isSalarySacrifice": false,
	  "addTaxableIncome": 0,
	  "mpaaIndicator": true
  },
  {
	  "annualSalary": 300000,
	  "invBuildLSAVC": 0,
	  "memAnnNormalInvBuildConts": 19209,
	  "empAnnNormalInvBuildConts": 28814,
	  "memAnnAddInvBuildConts": 0,
	  "memAnnSchemeConts": 29400,
	  "isSalarySacrifice": true,
	  "addTaxableIncome": 0,
	  "mpaaIndicator": false
  },
  {
	  "annualSalary": 300000,
	  "invBuildLSAVC": 0,
	  "memAnnNormalInvBuildConts": 19209,
	  "empAnnNormalInvBuildConts": 28814,
	  "memAnnAddInvBuildConts": 1000,
	  "memAnnSchemeConts": 29400,
	  "isSalarySacrifice": false,
	  "addTaxableIncome": 0,
	  "mpaaIndicator": true
  },
	{
		"annualSalary": 300000,
		"invBuildLSAVC": 1000,
		"memAnnNormalInvBuildConts": 19209,
		"empAnnNormalInvBuildConts": 28814,
		"memAnnAddInvBuildConts": 1000,
		"memAnnSchemeConts": 29400,
		"isSalarySacrifice": false,
		"addTaxableIncome": 0,
		"mpaaIndicator": true
	},
	{
		"annualSalary": 3000,
		"invBuildLSAVC": 0,
		"memAnnNormalInvBuildConts": 19,
		"empAnnNormalInvBuildConts": 28,
		"memAnnAddInvBuildConts": 1000,
		"memAnnSchemeConts": 29400,
		"isSalarySacrifice": true,
		"addTaxableIncome": 0,
		"mpaaIndicator": true
	},
	{
		"annualSalary": 300000,
		"invBuildLSAVC": 0,
		"memAnnNormalInvBuildConts": 19209,
		"empAnnNormalInvBuildConts": 28814,
		"memAnnAddInvBuildConts": 1000,
		"memAnnSchemeConts": 29400,
		"isSalarySacrifice": false,
		"addTaxableIncome": 35670,
		"mpaaIndicator": true
	},
	{
		"annualSalary": 300000,
		"invBuildLSAVC": 0,
		"memAnnNormalInvBuildConts": 19209,
		"empAnnNormalInvBuildConts": 28814,
		"memAnnAddInvBuildConts": 1000,
		"memAnnSchemeConts": 29400,
		"isSalarySacrifice": false,
		"addTaxableIncome": 0,
		"mpaaIndicator": false
	},
	{
		"annualSalary": 19999,
		"invBuildLSAVC": 0,
		"memAnnNormalInvBuildConts": 19209,
		"empAnnNormalInvBuildConts": 28814,
		"memAnnAddInvBuildConts": 1000,
		"memAnnSchemeConts": 29400,
		"isSalarySacrifice": true,
		"addTaxableIncome": 1000,
		"mpaaIndicator": true
	}
    ]

